…
# 1.1. 전제조건
tidyverse의 또 다른 핵심 멤버 인 dplyr 패키지를 사용하는 방법에 초점을 맞춘 정리입니다. 
nycflights13 패키지의 데이터를 사용하여 데이터 변환에 대한 정리를 진행하며 
ggplot2를 사용하여 데이터를 이해하는 데 도움을 줄 것입니다.
```{r}
library(nycflights13)
library(tidyverse)
```

## 1.2. nycflights13
이 데이터는 2013년 뉴욕에서 출발한 항공편의 데이터입니다.
```{r}
flights
#> # A tibble: 336,776 x 19
#>    year month   day dep_time sched_dep_time dep_delay arr_time sched_arr_time
#>   <int> <int> <int>    <int>          <int>     <dbl>    <int>          <int>
#> 1  2013     1     1      517            515         2      830            819
#> 2  2013     1     1      533            529         4      850            830
#> 3  2013     1     1      542            540         2      923            850
#> 4  2013     1     1      544            545        -1     1004           1022
#> 5  2013     1     1      554            600        -6      812            837
#> 6  2013     1     1      554            558        -4      740            728
#> # … with 336,770 more rows, and 11 more variables: arr_delay <dbl>,
#> #   carrier <chr>, flight <int>, tailnum <chr>, origin <chr>, dest <chr>,
#> #   air_time <dbl>, distance <dbl>, hour <dbl>, minute <dbl>, time_hour <dttm>
```
…
# 2. 행 필터링 filter()
fliter()함수는 조건에 따라 행(row)를 추출한다.
* fliter()함수의  사용방법
    - 첫번째 인수에 추출대상이 되는 데이터 프레임을 지정
    - 두번쨰 인수에 추출하고싶은 행의 조건을 지정
아래의 데이터는 filter)() 함수를 써서 1월1일의 정보만 추출한 것이다 
```{r}
filter(flights, month == 1, day == 1)
#> # A tibble: 842 x 19
#>    year month   day dep_time sched_dep_time dep_delay arr_time sched_arr_time
#>   <int> <int> <int>    <int>          <int>     <dbl>    <int>          <int>
#> 1  2013     1     1      517            515         2      830            819
#> 2  2013     1     1      533            529         4      850            830
#> 3  2013     1     1      542            540         2      923            850
#> 4  2013     1     1      544            545        -1     1004           1022
#> 5  2013     1     1      554            600        -6      812            837
#> 6  2013     1     1      554            558        -4      740            728
#> # … with 836 more rows, and 11 more variables: arr_delay <dbl>, carrier <chr>,
#> #   flight <int>, tailnum <chr>, origin <chr>, dest <chr>, air_time <dbl>,
#> #   distance <dbl>, hour <dbl>, minute <dbl>, time_hour <dttm>
```
…
